Classification of Denials
…
Now there is a .extracts column with nested tibbles.

log_res_2$.extracts[[1]]

## # A tibble: 1 x 2
##   .extracts         .config             
##   <list>            <chr>               
## 1 <tibble [28 x 5]> Preprocessor1_Model1

log_res_2$.extracts[[1]][[1]]

## [[1]]
## # A tibble: 28 x 5
##    term                             estimate     std.error statistic   p.value
##    <chr>                               <dbl>         <dbl>     <dbl>     <dbl>
##  1 (Intercept)                 -31.1         96.5             -0.323 7.47e-  1
##  2 visit_start_date_time        -0.000000352  0.0000000150   -23.5   7.71e-122
##  3 visit_end_date_time           0.000000351  0.0000000150    23.4   4.50e-121
##  4 total_payment_amount         -0.0388       0.00971         -4.00  6.37e-  5
##  5 payer_grouping_Medicare.HMO   0.526        0.141            3.74  1.85e-  4
##  6 payer_grouping_HMO           -0.129        0.142           -0.903 3.66e-  1
##  7 payer_grouping_Blue.Cross    -0.103        0.142           -0.724 4.69e-  1
##  8 payer_grouping_Medicaid.HMO   0.542        0.141            3.85  1.17e-  4
##  9 payer_grouping_Commercial    -0.123        0.147           -0.841 4.01e-  1
## 10 payer_grouping_Compensation  -0.418        0.170           -2.46  1.39e-  2
## # ... with 18 more rows

all_coef <- map_dfr(log_res_2$.extracts, ~ .x[[1]][[1]])

all_coef

## # A tibble: 139 x 5
##    term                             estimate     std.error statistic   p.value
##    <chr>                               <dbl>         <dbl>     <dbl>     <dbl>
##  1 (Intercept)                 -31.1         96.5             -0.323 7.47e-  1
##  2 visit_start_date_time        -0.000000352  0.0000000150   -23.5   7.71e-122
##  3 visit_end_date_time           0.000000351  0.0000000150    23.4   4.50e-121
##  4 total_payment_amount         -0.0388       0.00971         -4.00  6.37e-  5
##  5 payer_grouping_Medicare.HMO   0.526        0.141            3.74  1.85e-  4
##  6 payer_grouping_HMO           -0.129        0.142           -0.903 3.66e-  1
##  7 payer_grouping_Blue.Cross    -0.103        0.142           -0.724 4.69e-  1
##  8 payer_grouping_Medicaid.HMO   0.542        0.141            3.85  1.17e-  4
##  9 payer_grouping_Commercial    -0.123        0.147           -0.841 4.01e-  1
## 10 payer_grouping_Compensation  -0.418        0.170           -2.46  1.39e-  2
## # ... with 129 more rows
…
Show performance for every single fold:

log_res %>%  collect_metrics(summarize = FALSE)

## # A tibble: 40 x 5
##    id    .metric   .estimator .estimate .config             
##    <chr> <chr>     <chr>          <dbl> <chr>               
##  1 Fold1 recall    binary         0.539 Preprocessor1_Model1
##  2 Fold1 precision binary         0.859 Preprocessor1_Model1
##  3 Fold1 f_meas    binary         0.662 Preprocessor1_Model1
##  4 Fold1 accuracy  binary         0.725 Preprocessor1_Model1
##  5 Fold1 kap       binary         0.451 Preprocessor1_Model1
##  6 Fold1 sens      binary         0.539 Preprocessor1_Model1
##  7 Fold1 spec      binary         0.912 Preprocessor1_Model1
##  8 Fold1 roc_auc   binary         0.781 Preprocessor1_Model1
##  9 Fold2 recall    binary         0.542 Preprocessor1_Model1
## 10 Fold2 precision binary         0.854 Preprocessor1_Model1
## # ... with 30 more rows
…
